100000000011
000000000111
000000000000
000000000000
00000000000000
000010000000000000
00010000000000
000111000000000000001
000000000000001000100000
000000000000000000000000000000
00000000
000000000000000000
00000000000000000000000000000000000000
00000000000000100000000000000000010000000000
00000000000001000000000000
0000000000000111000000000000000000
00000000000
00000000000000
00000000001000000000000
000000000001000000000
00000000011100000000
0000000000000
0000000000000000000
00000000010100000000000
0000000000100000000000
000000000010000000